980060 730224 525
425648 171693 449
544293 694230 509
169798 386455 443
891822 904700 401
863970 68392 525
121482 228103 386
923238 976454 507
430926 28552 449
815358 874275 525
934468 403731 525
756529 174073 509
957645 766939 525
787950 662962 504
977322 398550 525
790955 354134 509
519134 732415 509
5545 802423 509
730127 226328 509
423491 47801 449
643604 36382 509
804277 820562 450
164310 566698 470
451662 669715 509
25422 895595 525
251082 414197 449
527600 694877 509
501859 224692 449
419367 603666 470
139388 226936 386
858613 294943 525
289633 105587 443
879130 66579 525
690429 377188 509
889362 257188 525
535055 382842 470
848659 524414 525
206458 939976 525
984336 552315 525
313395 129164 443
900561 10108 525
751695 944409 525
517757 758920 509
682742 587278 509
160312 561043 470
979549 347355 525
474764 654401 509
753961 319154 509
995428 497034 525
379956 718582 509
138911 140593 344
67396 819915 509
919312 924258 445
11130 24214 282
307205 716043 509
387450 132892 443
604904 515138 452
840078 816073 525
795260 333609 509
632044 52839 509
926679 843146 476
539761 113976 470
745962 318858 509
134052 858112 525
524462 199498 470
966484 215014 525
986919 535829 525
890584 374709 525
472103 148195 449
837545 77090 509
455914 383250 449
346646 182439 443
242396 822671 509
362241 102529 443
243652 559241 470
527392 821081 509
615861 734760 509
83854 804442 509
967128 227377 525
397846 989144 525
782836 762820 468
130752 879463 525
992299 46019 525
807886 889565 525
295877 93303 443
100697 241819 443
377963 560303 470
327688 135700 443
700238 269110 509
451479 95479 449
258607 594532 470
303059 434450 449
733674 354580 509
458519 944278 525
263285 366068 441
248828 22840 443
766604 173387 509
32156 842461 525
257456 565092 470
883315 724342 525
